<?xml version="1.0" encoding="UTF-8"?>
<svg xmlns="http://www.w3.org/2000/svg" xmlns:xlink="http://www.w3.org/1999/xlink" width="213pt" height="110pt" viewBox="0 0 213 110" version="1.1">
<g id="surface1">
<path style="fill-rule:evenodd;fill:rgb(91.363525%,91.20636%,91.246033%);fill-opacity:1;stroke-width:2.16;stroke-linecap:butt;stroke-linejoin:miter;stroke:rgb(13.729858%,12.159729%,12.548828%);stroke-opacity:1;stroke-miterlimit:2.6131;" d="M 102.929688 105.273438 L 2034.21875 105.273438 L 1499.765625 991.953125 Z M 102.929688 105.273438 " transform="matrix(0.1,0,0,-0.1,0,110)"/>
<path style=" stroke:none;fill-rule:evenodd;fill:rgb(74.113464%,73.643494%,73.75946%);fill-opacity:1;" d="M 10.292969 99.472656 L 29.789062 87.09375 C 32.136719 90.792969 33.386719 95.089844 33.386719 99.472656 L 10.292969 99.472656 "/>
<path style="fill:none;stroke-width:2.16;stroke-linecap:butt;stroke-linejoin:miter;stroke:rgb(13.729858%,12.159729%,12.548828%);stroke-opacity:1;stroke-miterlimit:2.6131;" d="M 102.929688 105.273438 L 297.890625 229.0625 C 321.367188 192.070312 333.867188 149.101562 333.867188 105.273438 Z M 102.929688 105.273438 " transform="matrix(0.1,0,0,-0.1,0,110)"/>
<path style=" stroke:none;fill-rule:evenodd;fill:rgb(13.729858%,12.159729%,12.548828%);fill-opacity:1;" d="M 148.898438 6.601562 C 148.464844 7.320312 148.105469 7.464844 147.675781 7.464844 C 147.53125 7.464844 147.457031 7.464844 147.457031 7.679688 C 147.457031 7.753906 147.53125 7.753906 147.601562 7.753906 L 149.402344 7.753906 C 149.472656 7.753906 149.617188 7.753906 149.617188 7.609375 C 149.617188 7.464844 149.546875 7.464844 149.472656 7.464844 C 149.257812 7.464844 148.96875 7.394531 148.96875 7.105469 C 148.96875 7.03125 149.042969 6.890625 149.113281 6.746094 L 149.90625 5.449219 L 152.355469 5.449219 C 152.425781 5.664062 152.570312 7.03125 152.570312 7.105469 C 152.570312 7.464844 151.992188 7.464844 151.851562 7.464844 C 151.707031 7.464844 151.5625 7.464844 151.5625 7.679688 C 151.5625 7.753906 151.707031 7.753906 151.707031 7.753906 L 154.082031 7.753906 C 154.152344 7.753906 154.296875 7.753906 154.296875 7.609375 C 154.296875 7.464844 154.152344 7.464844 154.082031 7.464844 C 153.433594 7.464844 153.433594 7.394531 153.433594 7.105469 L 152.785156 0.910156 C 152.785156 0.695312 152.785156 0.625 152.640625 0.625 C 152.425781 0.625 152.425781 0.695312 152.355469 0.839844 Z M 150.050781 5.160156 L 152.066406 1.847656 L 152.355469 5.160156 Z M 150.050781 5.160156 "/>
<path style=" stroke:none;fill-rule:evenodd;fill:rgb(13.729858%,12.159729%,12.548828%);fill-opacity:1;" d="M 2.125 103.394531 C 2.050781 103.753906 2.050781 103.828125 1.261719 103.828125 C 1.117188 103.828125 0.972656 103.828125 0.972656 104.042969 C 0.972656 104.113281 1.042969 104.113281 1.261719 104.113281 L 4.789062 104.113281 C 6.371094 104.113281 7.523438 102.960938 7.523438 101.953125 C 7.523438 101.234375 6.949219 100.65625 6.011719 100.585938 C 7.019531 100.371094 8.101562 99.652344 8.101562 98.714844 C 8.101562 97.996094 7.453125 97.347656 6.230469 97.347656 L 2.917969 97.347656 C 2.699219 97.347656 2.628906 97.347656 2.628906 97.5625 C 2.628906 97.632812 2.699219 97.632812 2.917969 97.632812 C 2.917969 97.632812 3.0625 97.632812 3.277344 97.632812 C 3.421875 97.707031 3.5625 97.707031 3.5625 97.851562 C 3.5625 97.851562 3.492188 97.921875 3.492188 97.996094 Z M 3.636719 100.515625 L 4.285156 97.996094 C 4.355469 97.707031 4.355469 97.632812 4.789062 97.632812 L 6.085938 97.632812 C 6.949219 97.632812 7.164062 98.210938 7.164062 98.644531 C 7.164062 99.578125 6.300781 100.515625 5.148438 100.515625 Z M 3.203125 103.828125 C 3.0625 103.828125 3.0625 103.828125 2.988281 103.828125 C 2.917969 103.828125 2.84375 103.828125 2.84375 103.753906 C 2.84375 103.683594 2.84375 103.683594 2.917969 103.464844 L 3.636719 100.730469 L 5.507812 100.730469 C 6.445312 100.730469 6.660156 101.449219 6.660156 101.882812 C 6.660156 102.890625 5.722656 103.828125 4.574219 103.828125 L 3.203125 103.828125 "/>
<path style=" stroke:none;fill-rule:evenodd;fill:rgb(13.729858%,12.159729%,12.548828%);fill-opacity:1;" d="M 212.390625 97.507812 C 212.390625 97.507812 212.390625 97.433594 212.320312 97.433594 C 212.320312 97.433594 212.246094 97.433594 212.175781 97.507812 L 211.453125 98.296875 C 211.382812 98.152344 210.953125 97.433594 209.800781 97.433594 C 207.566406 97.433594 205.335938 99.59375 205.335938 101.898438 C 205.335938 103.554688 206.558594 104.632812 208.070312 104.632812 C 208.9375 104.632812 209.65625 104.273438 210.230469 103.769531 C 211.167969 102.976562 211.3125 102.113281 211.3125 102.042969 C 211.3125 101.96875 211.167969 101.96875 211.167969 101.96875 C 211.097656 101.96875 211.097656 101.96875 211.023438 102.042969 C 210.953125 102.332031 210.734375 103.050781 210.015625 103.625 C 209.367188 104.203125 208.71875 104.347656 208.214844 104.347656 C 207.351562 104.347656 206.269531 103.84375 206.269531 102.257812 C 206.269531 101.683594 206.488281 100.097656 207.496094 98.945312 C 208.070312 98.226562 209.007812 97.722656 209.871094 97.722656 C 210.878906 97.722656 211.527344 98.515625 211.527344 99.664062 C 211.527344 100.027344 211.453125 100.027344 211.453125 100.167969 C 211.453125 100.242188 211.601562 100.242188 211.601562 100.242188 C 211.742188 100.242188 211.742188 100.242188 211.816406 100.027344 L 212.390625 97.507812 "/>
<path style=" stroke:none;fill-rule:evenodd;fill:rgb(13.729858%,12.159729%,12.548828%);fill-opacity:1;" d="M 40.378906 86.328125 L 43.117188 87.554688 L 43.1875 87.335938 L 40.378906 85.679688 L 37.574219 87.335938 L 37.714844 87.554688 L 40.378906 86.328125 "/>
<path style=" stroke:none;fill-rule:evenodd;fill:rgb(13.729858%,12.159729%,12.548828%);fill-opacity:1;" d="M 37.070312 94.898438 C 36.925781 95.257812 36.925781 95.328125 36.132812 95.328125 C 35.988281 95.328125 35.84375 95.328125 35.84375 95.546875 C 35.84375 95.617188 35.988281 95.617188 36.132812 95.617188 L 39.730469 95.617188 C 41.246094 95.617188 42.46875 94.464844 42.46875 93.457031 C 42.46875 92.738281 41.894531 92.160156 40.882812 92.089844 C 41.964844 91.875 42.972656 91.152344 42.972656 90.21875 C 42.972656 89.496094 42.324219 88.847656 41.171875 88.847656 L 37.789062 88.847656 C 37.574219 88.847656 37.5 88.847656 37.5 89.066406 C 37.5 89.136719 37.574219 89.136719 37.789062 89.136719 C 37.789062 89.136719 38.003906 89.136719 38.148438 89.136719 C 38.363281 89.210938 38.4375 89.210938 38.4375 89.351562 C 38.4375 89.351562 38.4375 89.425781 38.363281 89.496094 Z M 38.582031 92.019531 L 39.15625 89.496094 C 39.300781 89.210938 39.300781 89.136719 39.730469 89.136719 L 41.027344 89.136719 C 41.894531 89.136719 42.109375 89.714844 42.109375 90.144531 C 42.109375 91.082031 41.246094 92.019531 40.019531 92.019531 Z M 38.078125 95.328125 C 38.003906 95.328125 37.933594 95.328125 37.859375 95.328125 C 37.789062 95.328125 37.789062 95.328125 37.789062 95.257812 C 37.789062 95.183594 37.789062 95.183594 37.789062 94.96875 L 38.507812 92.234375 L 40.378906 92.234375 C 41.316406 92.234375 41.53125 92.953125 41.53125 93.386719 C 41.53125 94.394531 40.667969 95.328125 39.445312 95.328125 L 38.078125 95.328125 "/>
<path style=" stroke:none;fill-rule:evenodd;fill:rgb(13.729858%,12.159729%,12.548828%);fill-opacity:1;" d="M 125.945312 105.03125 C 125.730469 104.671875 125.441406 104.382812 125.011719 104.382812 C 123.859375 104.382812 122.632812 105.894531 122.632812 107.335938 C 122.632812 108.269531 123.140625 108.917969 123.929688 108.917969 C 124.144531 108.917969 124.648438 108.847656 125.226562 108.125 C 125.296875 108.558594 125.660156 108.917969 126.164062 108.917969 C 126.449219 108.917969 126.738281 108.703125 126.882812 108.34375 C 127.027344 107.980469 127.171875 107.40625 127.171875 107.40625 C 127.171875 107.261719 127.097656 107.261719 127.027344 107.261719 C 126.953125 107.261719 126.953125 107.335938 126.882812 107.476562 C 126.738281 108.125 126.523438 108.703125 126.164062 108.703125 C 125.875 108.703125 125.875 108.414062 125.875 108.199219 C 125.875 107.980469 125.875 107.910156 125.945312 107.476562 C 126.089844 107.046875 126.089844 106.972656 126.164062 106.613281 L 126.523438 105.175781 C 126.59375 104.886719 126.59375 104.886719 126.59375 104.886719 C 126.59375 104.671875 126.523438 104.597656 126.308594 104.597656 C 126.089844 104.597656 125.945312 104.8125 125.945312 105.03125 Z M 125.296875 107.621094 C 125.226562 107.765625 125.226562 107.839844 125.082031 107.980469 C 124.648438 108.558594 124.21875 108.703125 123.929688 108.703125 C 123.425781 108.703125 123.28125 108.125 123.28125 107.765625 C 123.28125 107.261719 123.644531 106.039062 123.859375 105.535156 C 124.144531 104.957031 124.578125 104.597656 125.011719 104.597656 C 125.660156 104.597656 125.800781 105.460938 125.800781 105.460938 C 125.800781 105.535156 125.800781 105.605469 125.800781 105.679688 L 125.296875 107.621094 "/>
<path style=" stroke:none;fill-rule:evenodd;fill:rgb(13.729858%,12.159729%,12.548828%);fill-opacity:1;" d="M 182.863281 47.859375 C 182.863281 47.859375 182.863281 47.71875 182.71875 47.71875 C 182.503906 47.71875 181.78125 47.789062 181.496094 47.859375 C 181.421875 47.859375 181.277344 47.859375 181.277344 48.003906 C 181.277344 48.148438 181.421875 48.148438 181.566406 48.148438 C 182 48.148438 182.070312 48.222656 182.070312 48.292969 C 182.070312 48.363281 181.925781 48.726562 181.925781 48.941406 L 181.0625 52.179688 C 180.992188 52.683594 180.917969 52.828125 180.917969 53.1875 C 180.917969 54.125 181.496094 54.773438 182.214844 54.773438 C 183.367188 54.773438 184.589844 53.261719 184.589844 51.820312 C 184.589844 50.957031 184.085938 50.238281 183.296875 50.238281 C 182.789062 50.238281 182.429688 50.523438 182.144531 50.8125 Z M 181.925781 51.605469 C 182 51.390625 182 51.390625 182.070312 51.246094 C 182.574219 50.597656 183.007812 50.453125 183.222656 50.453125 C 183.582031 50.453125 183.871094 50.742188 183.871094 51.390625 C 183.871094 51.964844 183.582031 53.117188 183.367188 53.550781 C 183.078125 54.199219 182.574219 54.558594 182.214844 54.558594 C 181.855469 54.558594 181.496094 54.269531 181.496094 53.550781 C 181.496094 53.332031 181.496094 53.1875 181.710938 52.539062 L 181.925781 51.605469 "/>
<path style=" stroke:none;fill-rule:evenodd;fill:rgb(13.729858%,12.159729%,12.548828%);fill-opacity:1;" d="M 77.820312 47.632812 C 77.675781 47.632812 77.53125 47.632812 77.386719 47.777344 C 77.242188 47.921875 77.242188 48.066406 77.242188 48.136719 C 77.242188 48.351562 77.386719 48.496094 77.601562 48.496094 C 77.890625 48.496094 78.105469 48.28125 78.105469 47.847656 C 78.105469 47.34375 77.675781 46.984375 76.957031 46.984375 C 75.585938 46.984375 74.292969 48.425781 74.292969 49.792969 C 74.292969 50.730469 74.867188 51.519531 75.875 51.519531 C 77.316406 51.519531 78.179688 50.441406 78.179688 50.367188 C 78.179688 50.296875 78.105469 50.226562 78.035156 50.226562 C 77.964844 50.226562 77.964844 50.226562 77.890625 50.296875 C 77.097656 51.304688 76.019531 51.304688 75.949219 51.304688 C 75.300781 51.304688 75.011719 50.800781 75.011719 50.226562 C 75.011719 49.792969 75.226562 48.855469 75.585938 48.210938 C 75.875 47.632812 76.453125 47.203125 76.957031 47.203125 C 77.316406 47.203125 77.675781 47.34375 77.820312 47.632812 "/>
<path style=" stroke:none;fill-rule:evenodd;fill:rgb(74.113464%,73.643494%,73.75946%);fill-opacity:1;" d="M 149.839844 10.953125 L 140.011719 31.851562 C 136.050781 29.988281 132.6875 27.027344 130.339844 23.328125 L 149.839844 10.953125 "/>
<path style="fill:none;stroke-width:2.16;stroke-linecap:butt;stroke-linejoin:miter;stroke:rgb(13.729858%,12.159729%,12.548828%);stroke-opacity:1;stroke-miterlimit:2.6131;" d="M 1498.398438 990.46875 L 1400.117188 781.484375 C 1360.507812 800.117188 1326.875 829.726562 1303.398438 866.71875 Z M 1498.398438 990.46875 " transform="matrix(0.1,0,0,-0.1,0,110)"/>
<path style="fill:none;stroke-width:2.16;stroke-linecap:butt;stroke-linejoin:miter;stroke:rgb(13.729858%,12.159729%,12.548828%);stroke-opacity:1;stroke-miterlimit:2.6131;" d="M 1499.765625 991.953125 L 1086.796875 105.273438 " transform="matrix(0.1,0,0,-0.1,0,110)"/>
<path style=" stroke:none;fill-rule:evenodd;fill:rgb(13.729858%,12.159729%,12.548828%);fill-opacity:1;" d="M 130.214844 29.414062 L 132.949219 30.636719 L 133.019531 30.421875 L 130.214844 28.765625 L 127.402344 30.421875 L 127.546875 30.636719 L 130.214844 29.414062 "/>
<path style=" stroke:none;fill-rule:evenodd;fill:rgb(13.729858%,12.159729%,12.548828%);fill-opacity:1;" d="M 126.898438 37.980469 C 126.757812 38.339844 126.757812 38.414062 125.964844 38.414062 C 125.820312 38.414062 125.675781 38.414062 125.675781 38.628906 C 125.675781 38.703125 125.820312 38.703125 125.964844 38.703125 L 129.5625 38.703125 C 131.078125 38.703125 132.300781 37.550781 132.300781 36.542969 C 132.300781 35.820312 131.722656 35.246094 130.714844 35.171875 C 131.796875 34.957031 132.804688 34.238281 132.804688 33.300781 C 132.804688 32.582031 132.15625 31.933594 131.003906 31.933594 L 127.621094 31.933594 C 127.402344 31.933594 127.332031 31.933594 127.332031 32.148438 C 127.332031 32.222656 127.402344 32.222656 127.621094 32.222656 C 127.621094 32.222656 127.835938 32.222656 127.980469 32.222656 C 128.195312 32.292969 128.269531 32.292969 128.269531 32.4375 C 128.269531 32.4375 128.269531 32.507812 128.195312 32.582031 Z M 128.414062 35.101562 L 128.988281 32.582031 C 129.132812 32.292969 129.132812 32.222656 129.5625 32.222656 L 130.859375 32.222656 C 131.722656 32.222656 131.941406 32.796875 131.941406 33.230469 C 131.941406 34.164062 131.078125 35.101562 129.851562 35.101562 Z M 127.910156 38.414062 C 127.835938 38.414062 127.765625 38.414062 127.691406 38.414062 C 127.621094 38.414062 127.621094 38.414062 127.621094 38.339844 C 127.621094 38.269531 127.621094 38.269531 127.621094 38.054688 L 128.339844 35.316406 L 130.214844 35.316406 C 131.148438 35.316406 131.363281 36.035156 131.363281 36.46875 C 131.363281 37.476562 130.5 38.414062 129.277344 38.414062 L 127.910156 38.414062 "/>
<path style=" stroke:none;fill-rule:evenodd;fill:rgb(13.729858%,12.159729%,12.548828%);fill-opacity:1;" d="M 103.054688 107.945312 C 102.695312 108.667969 102.265625 108.808594 101.832031 108.808594 C 101.6875 108.808594 101.617188 108.808594 101.617188 109.027344 C 101.617188 109.097656 101.6875 109.097656 101.761719 109.097656 L 103.632812 109.097656 C 103.703125 109.097656 103.777344 109.097656 103.777344 108.953125 C 103.777344 108.808594 103.703125 108.808594 103.632812 108.808594 C 103.414062 108.808594 103.199219 108.738281 103.199219 108.449219 C 103.199219 108.378906 103.199219 108.234375 103.34375 108.089844 L 104.0625 106.792969 L 106.585938 106.792969 C 106.585938 107.011719 106.726562 108.378906 106.726562 108.449219 C 106.726562 108.808594 106.222656 108.808594 106.007812 108.808594 C 105.863281 108.808594 105.792969 108.808594 105.792969 109.027344 C 105.792969 109.097656 105.863281 109.097656 105.9375 109.097656 L 108.3125 109.097656 C 108.3125 109.097656 108.457031 109.097656 108.457031 108.953125 C 108.457031 108.808594 108.382812 108.808594 108.238281 108.808594 C 107.59375 108.808594 107.59375 108.738281 107.59375 108.449219 L 106.945312 102.257812 C 106.945312 102.042969 106.945312 101.96875 106.800781 101.96875 C 106.65625 101.96875 106.585938 102.042969 106.511719 102.1875 Z M 104.28125 106.507812 L 106.222656 103.195312 L 106.511719 106.507812 Z M 104.28125 106.507812 "/>
<path style=" stroke:none;fill-rule:evenodd;fill:rgb(13.729858%,12.159729%,12.548828%);fill-opacity:1;" d="M 110.761719 101.609375 C 110.832031 101.539062 110.832031 101.464844 110.832031 101.394531 C 110.832031 101.179688 110.617188 101.035156 110.398438 101.035156 C 110.113281 101.035156 110.039062 101.25 110.039062 101.324219 L 109.105469 104.347656 C 109.105469 104.417969 109.03125 104.488281 109.03125 104.488281 C 109.03125 104.5625 109.246094 104.632812 109.320312 104.632812 C 109.390625 104.632812 109.390625 104.632812 109.464844 104.488281 L 110.761719 101.609375 "/>
</g>
</svg>
