<?xml version="1.0" encoding="UTF-8"?>
<svg xmlns="http://www.w3.org/2000/svg" xmlns:xlink="http://www.w3.org/1999/xlink" width="1152pt" height="1099pt" viewBox="0 0 1152 1099" version="1.1">
<g id="surface1">
<path style=" stroke:none;fill-rule:nonzero;fill:rgb(95.68634%,95.608521%,95.628357%);fill-opacity:1;" d="M 358 166 L 358 168 C 348 171 344 173 333 173 C 323 173 314 171 304 169 L 281 160 C 277 166 273 171 267 175 C 256 183 232 189 219 187 L 195 180 C 193 179 188 177 186 178 C 181 181 188 192 190 195 L 173 198 L 143 207 C 107 219 72 238 42 262 C 31 271 10 288 3 300 L 17 301 L 35 293 L 64 277 C 61 288 62 299 62 310 C 71 310 80 305 88 301 L 110 290 L 135 276 L 134 283 L 126 294 L 111 314 L 124 315 L 156 306 L 205 290 L 230 281 C 226 296 230 314 231 329 C 241 322 260 292 274 282 L 269 329 L 269 339 C 277 339 283 333 290 329 C 300 322 311 316 319 308 L 330 294 L 329 311 C 329 323 336 336 342 347 L 352 338 L 371 315 C 373 324 378 338 383 346 C 385 349 388 354 391 356 C 394 358 397 358 400 358 L 395 336 C 397 335 399 334 401 335 C 404 336 405 341 406 344 C 409 349 411 353 415 357 C 413 360 408 366 409 370 C 410 373 416 376 419 378 C 428 383 441 388 451 389 L 451 399 L 445 411 L 452 431 L 449 442 C 455 443 455 444 459 447 L 453 459 L 460 460 C 459 461 455 464 455 465 C 454 469 461 474 455 476 L 458 486 C 458 491 455 496 453 500 C 449 507 441 523 439 529 L 437 529 L 434 523 C 428 526 427 533 427 540 C 428 545 430 550 433 555 C 438 564 448 580 456 586 L 456 546 L 444 543 L 447 540 C 442 538 446 532 448 529 L 464 499 L 493 451 C 495 447 503 436 507 434 C 511 433 512 437 517 436 L 530 433 C 536 432 540 434 547 431 C 551 429 554 426 559 423 C 560 430 564 429 570 431 L 562 434 L 562 439 C 565 437 568 434 571 434 C 575 432 581 435 584 437 C 592 441 596 446 601 453 C 605 458 608 462 614 464 C 614 457 615 455 621 452 L 626 466 L 622 465 C 628 477 633 475 634 481 C 634 487 627 495 624 499 C 612 512 598 523 584 533 L 593 534 C 590 540 584 545 579 550 C 572 557 562 567 556 575 C 553 579 546 588 549 594 C 550 597 553 597 556 595 C 560 593 566 585 569 581 L 607 539 C 613 533 621 524 623 516 L 619 515 L 634 505 C 636 504 639 504 640 506 C 642 510 635 513 636 518 L 643 528 C 646 534 650 540 653 546 C 654 549 656 554 656 558 C 655 561 653 564 651 566 L 657 565 L 658 600 C 647 595 643 595 632 595 C 641 600 660 598 669 615 C 670 617 672 623 671 626 C 671 628 667 631 665 633 C 662 637 660 640 658 644 L 656 640 L 643 641 C 654 651 664 654 673 668 C 677 673 680 680 675 685 C 679 695 685 699 692 706 C 689 705 682 704 680 702 C 678 699 680 695 675 693 L 661 688 C 657 688 656 691 649 689 C 642 687 634 678 629 673 C 623 667 617 663 619 654 C 625 655 626 655 631 653 L 631 651 L 625 647 C 618 651 609 651 601 651 C 600 653 600 654 599 656 C 589 668 582 649 579 642 L 569 639 C 567 646 567 651 561 656 L 554 644 L 550 618 L 540 577 L 536 579 C 534 575 534 574 529 575 C 532 585 538 589 533 600 L 537 602 L 533 605 C 535 616 527 607 523 610 C 521 611 521 616 520 618 L 525 619 L 525 613 L 532 614 L 527 624 L 523 637 C 531 641 547 656 554 663 C 562 670 572 679 578 687 L 570 684 L 565 687 L 566 679 C 561 681 558 684 555 683 C 552 682 546 676 544 674 C 535 665 522 652 521 639 C 513 644 503 648 500 658 C 500 661 499 664 500 667 C 501 671 506 672 505 678 L 502 694 C 502 700 508 705 503 714 C 503 716 502 717 500 718 C 499 718 496 718 495 718 C 498 722 501 727 502 732 C 502 739 498 750 494 755 C 492 757 489 760 486 760 C 484 760 481 757 479 756 L 478 769 C 475 768 470 766 469 764 C 468 761 471 755 471 753 L 475 747 C 476 744 475 743 476 740 C 477 738 482 732 484 730 L 487 745 C 491 738 487 734 487 728 C 486 726 487 721 487 719 L 495 669 L 500 645 L 496 645 L 493 653 L 490 650 C 481 639 497 645 503 634 L 487 637 L 485 631 L 480 626 L 489 615 C 484 612 483 610 480 605 C 475 608 476 612 474 618 C 469 614 464 608 465 601 L 461 601 L 464 612 L 466 642 C 466 650 467 655 463 663 L 458 647 L 454 647 C 457 657 463 673 463 683 L 463 708 L 456 708 L 455 700 C 444 706 453 712 451 720 C 450 729 441 744 434 749 C 433 751 431 752 429 753 C 418 758 417 745 405 740 C 398 738 384 741 380 747 C 378 749 378 752 377 755 L 373 764 C 366 758 362 748 358 740 C 354 733 352 731 346 725 C 342 727 338 729 341 734 C 331 744 335 739 331 750 C 329 753 328 756 329 759 C 331 766 338 767 337 775 C 347 778 349 773 355 773 C 358 774 362 775 363 777 C 364 781 360 793 355 784 L 338 789 C 334 789 331 787 328 786 C 322 786 318 790 315 795 L 322 799 L 305 808 C 303 803 300 803 295 802 C 296 805 300 809 299 812 C 298 815 295 816 294 821 C 294 825 295 835 299 836 C 303 838 303 835 311 835 L 311 842 C 315 842 317 842 321 841 C 327 839 334 834 339 839 C 341 838 344 837 346 837 C 352 837 358 848 359 854 C 360 858 357 860 359 864 C 362 870 369 869 371 863 C 373 860 371 857 374 851 C 377 847 378 845 380 840 L 383 840 L 384 849 L 373 867 L 372 875 L 373 880 L 368 887 L 355 906 L 350 907 C 350 917 353 916 352 921 C 351 927 345 935 347 941 C 347 945 354 955 357 958 C 358 960 361 963 362 964 C 365 966 367 963 371 964 L 374 966 L 391 969 L 417 973 L 417 965 C 421 969 429 976 428 982 C 427 985 425 987 424 989 C 423 992 423 994 423 997 C 430 998 432 1002 435 1008 L 431 1009 C 436 1020 436 1016 446 1026 C 444 1027 441 1027 439 1026 C 436 1024 436 1021 433 1019 C 429 1015 410 1011 412 1022 L 415 1030 C 412 1029 411 1028 409 1031 L 416 1031 L 415 1038 L 424 1038 C 422 1040 416 1047 415 1049 C 414 1054 427 1061 431 1062 C 430 1051 426 1040 436 1032 L 440 1042 L 462 1061 L 456 1063 C 460 1070 465 1068 472 1070 C 477 1071 479 1072 483 1076 L 487 1074 L 487 1072 L 469 1065 L 468 1060 C 475 1061 480 1063 484 1068 L 497 1066 C 511 1064 517 1060 529 1070 C 534 1074 541 1082 536 1089 C 534 1092 528 1095 524 1094 C 517 1093 514 1086 509 1095 C 506 1091 505 1090 506 1085 C 500 1086 498 1087 496 1093 C 498 1094 500 1098 501 1098 C 503 1099 519 1099 522 1099 L 561 1099 C 576 1099 565 1085 560 1080 C 564 1078 572 1074 576 1074 C 584 1074 592 1082 593 1090 C 593 1093 592 1096 591 1099 L 597 1098 L 612 1085 L 619 1078 L 629 1081 L 629 1082 L 627 1084 L 631 1088 L 630 1084 C 636 1085 649 1088 652 1093 L 642 1094 C 636 1094 630 1087 627 1099 L 693 1099 L 712 1096 L 729 1099 L 751 1099 C 747 1093 747 1092 746 1085 L 751 1087 L 747 1079 L 741 1082 C 739 1077 737 1076 737 1071 L 751 1077 C 751 1071 750 1069 744 1066 C 747 1060 754 1056 759 1051 C 764 1047 767 1044 770 1038 L 747 1029 C 752 1018 749 1020 745 1010 C 743 1003 746 1002 738 999 L 744 980 L 740 979 L 745 977 L 743 971 L 748 971 C 747 966 748 965 750 961 C 748 959 748 959 748 956 L 733 955 L 733 951 C 724 950 713 947 710 938 C 709 935 709 930 709 926 C 716 930 715 939 721 943 C 725 946 730 947 733 943 C 729 941 730 939 730 935 C 734 935 746 937 748 941 C 749 942 748 944 749 947 C 750 950 753 952 756 953 L 757 952 L 752 948 C 753 944 754 943 751 939 C 756 938 765 934 769 936 C 773 938 774 942 776 945 C 778 948 784 952 785 955 C 786 957 785 958 783 959 L 783 967 C 791 963 789 967 795 967 C 799 966 802 964 806 967 C 810 970 812 976 816 977 C 820 977 821 972 819 968 C 817 963 813 963 811 956 C 802 956 806 953 800 949 L 795 956 C 795 953 794 949 795 946 C 796 942 798 941 799 936 C 802 916 800 909 808 890 L 802 890 C 802 883 801 883 797 878 C 804 877 810 883 814 888 C 819 884 822 881 826 876 C 835 866 838 859 836 846 C 835 842 834 837 832 833 C 832 831 830 828 830 826 C 831 821 839 817 839 811 C 838 805 826 802 821 802 C 805 801 796 817 786 827 L 779 800 C 772 786 769 792 769 779 L 769 752 C 763 751 757 751 754 745 C 751 740 752 730 744 727 C 740 726 734 728 730 728 L 700 735 L 671 732 C 675 727 685 724 691 721 C 693 721 698 719 700 719 C 706 720 704 725 712 724 C 709 718 703 717 697 717 L 696 706 L 709 717 C 709 712 708 710 705 706 C 701 698 700 695 693 688 C 698 684 696 680 694 675 C 691 667 685 655 684 646 C 684 641 686 637 687 631 L 684 631 C 685 624 689 624 690 629 C 691 631 691 640 694 649 C 702 640 710 618 714 606 C 716 602 719 590 724 589 C 727 588 737 591 740 592 C 746 595 754 599 758 604 C 764 612 764 622 769 630 C 772 635 773 635 777 638 C 780 641 782 647 785 648 C 788 649 791 646 793 644 C 801 637 802 636 809 628 C 815 622 819 617 821 609 L 820 608 L 818 608 L 815 614 C 813 612 811 610 810 607 C 810 600 817 596 807 592 C 811 582 817 583 817 570 C 811 572 810 575 806 580 C 804 572 795 568 788 565 L 791 561 L 810 557 C 809 554 808 551 809 548 C 810 537 818 526 812 513 C 811 510 809 508 806 506 C 803 505 797 506 794 507 L 775 513 C 773 514 768 517 766 516 C 763 516 761 513 759 511 L 755 514 C 755 504 759 503 768 505 C 767 492 760 492 759 484 L 764 436 C 764 431 763 426 767 423 L 765 411 L 771 412 L 770 419 C 778 411 769 400 765 392 C 775 392 777 387 782 380 C 783 378 788 371 790 371 C 793 370 796 375 797 377 C 800 381 803 386 805 390 C 807 394 807 398 810 402 C 818 390 833 370 834 356 L 867 386 C 874 392 878 397 888 397 L 888 385 L 885 376 L 890 362 L 892 345 L 894 345 C 896 351 900 357 905 362 C 912 371 921 382 932 387 C 935 381 938 369 936 362 C 936 359 932 348 935 346 C 937 344 941 346 943 347 C 950 349 957 353 964 357 L 999 376 C 1006 380 1026 392 1033 393 C 1036 394 1042 394 1046 394 C 1044 386 1040 380 1036 373 C 1031 366 1027 363 1029 354 L 1059 378 L 1079 389 L 1092 390 C 1092 380 1090 367 1092 358 C 1101 370 1108 376 1120 384 C 1126 388 1132 392 1140 392 L 1150 392 C 1148 386 1143 382 1140 377 C 1131 366 1125 360 1115 350 C 1075 310 1031 285 979 264 C 990 254 991 257 991 244 C 982 247 964 255 955 256 C 950 256 941 255 935 254 C 927 253 911 250 904 247 C 901 245 899 244 897 241 C 896 238 896 234 893 232 C 891 232 888 233 886 234 C 883 236 877 239 873 239 L 825 233 C 812 233 798 236 786 242 C 780 245 774 250 773 257 C 771 264 777 275 777 281 C 776 286 772 291 768 294 C 764 297 754 302 748 303 C 743 303 736 300 731 298 C 725 296 720 295 714 296 C 701 299 693 310 679 311 C 680 317 681 318 680 324 C 675 316 678 314 676 310 C 672 305 660 306 657 312 C 655 315 658 317 656 321 C 655 324 651 326 649 327 L 651 316 L 640 312 C 642 304 643 303 640 295 C 640 294 640 292 638 291 C 637 290 628 289 626 289 C 631 278 632 274 635 262 C 636 258 638 252 636 248 C 634 236 626 240 626 226 C 626 220 627 203 625 198 C 621 191 607 186 600 183 C 598 193 591 209 599 217 C 603 223 608 221 613 226 C 602 226 603 227 593 222 C 592 227 593 228 596 233 C 590 232 586 229 584 223 L 582 214 L 574 205 L 583 204 L 576 195 L 587 191 L 587 189 C 585 188 581 186 578 187 C 576 188 576 191 574 195 C 571 200 567 202 562 203 L 561 211 L 571 211 C 571 215 571 216 575 218 C 565 224 558 231 547 233 C 547 235 548 237 548 239 C 546 247 536 245 531 243 C 531 246 531 255 532 257 C 533 261 538 262 543 272 C 545 277 548 290 552 292 C 554 293 559 293 561 293 L 557 281 L 567 265 C 571 268 576 274 574 279 L 568 289 C 580 293 564 301 569 307 C 570 309 574 309 576 310 C 578 310 579 310 581 310 C 583 310 586 307 588 306 L 591 311 C 594 310 597 308 600 310 C 604 311 604 315 606 317 C 608 319 611 318 613 319 C 616 320 623 325 627 313 C 632 318 634 319 634 327 L 616 330 L 624 334 L 613 340 L 623 349 C 625 352 622 355 622 358 C 623 360 625 362 625 364 C 626 367 624 369 624 371 C 624 374 626 376 626 379 C 625 384 620 391 616 394 L 617 388 C 611 386 604 388 598 384 C 593 381 594 377 591 374 C 589 371 583 368 579 367 L 576 377 C 569 372 570 371 571 363 L 579 364 C 583 363 588 355 589 351 L 573 352 C 562 353 558 352 548 357 C 539 362 531 369 523 375 L 510 383 C 506 386 495 395 490 395 C 486 395 478 390 475 387 C 485 384 491 369 491 359 C 491 353 487 354 490 348 L 486 343 C 495 338 489 332 488 325 C 488 320 490 316 492 312 C 480 308 484 306 478 299 C 485 292 488 293 497 293 C 493 280 484 291 474 279 C 479 277 483 275 487 271 C 482 268 473 264 470 258 C 468 254 471 249 472 245 L 486 215 C 497 219 508 222 518 227 C 521 229 530 237 532 237 C 536 237 539 232 540 229 C 525 224 510 215 497 206 C 494 203 481 192 478 191 C 474 190 465 197 461 200 L 418 231 L 418 226 C 414 231 409 244 407 251 C 401 265 391 294 389 309 C 395 314 389 318 386 317 C 378 315 377 309 377 302 C 378 292 381 275 384 266 L 378 269 C 377 266 374 261 374 258 C 373 250 379 241 385 235 L 392 229 C 396 225 397 220 403 216 L 420 210 C 428 206 426 202 435 201 C 431 198 430 198 431 193 C 438 196 448 199 456 197 C 451 183 439 181 427 177 L 347 148 C 298 128 249 107 201 84 L 160 64 C 152 60 142 56 136 51 C 125 42 106 14 98 2 C 89 5 87 10 83 18 C 76 32 72 45 67 60 L 64 76 C 63 78 63 81 65 82 C 67 83 72 81 74 81 L 98 75 C 113 72 134 79 149 83 C 194 96 254 121 297 140 L 340 158 Z M 410 201 L 408 188 C 419 186 419 198 410 201 Z M 479 300 L 480 310 C 474 307 472 308 469 314 L 462 311 C 461 314 459 315 458 311 L 451 316 L 458 322 C 453 324 449 322 444 319 L 446 325 L 437 322 L 438 326 C 428 324 430 319 435 313 L 425 319 L 415 313 L 406 312 C 410 307 412 307 418 307 L 418 301 C 431 304 434 298 441 298 C 444 298 446 300 449 301 L 449 297 L 457 300 L 458 295 Z M 647 317 C 644 326 643 324 635 323 C 639 318 641 316 647 317 Z M 678 327 C 678 348 667 367 659 386 C 654 384 652 382 650 377 C 645 367 637 344 653 341 L 655 354 L 664 346 C 668 339 670 331 678 327 Z M 700 330 L 702 327 L 710 332 L 726 333 C 723 338 716 339 707 349 C 694 364 693 371 685 388 L 680 382 C 676 385 676 386 675 390 C 682 393 673 400 669 402 C 672 389 667 396 669 385 C 673 371 687 351 695 338 L 686 347 C 681 342 680 338 684 332 C 685 331 686 329 687 328 C 689 327 697 326 699 328 C 700 329 700 329 700 330 Z M 650 329 C 651 334 651 336 647 339 C 647 335 647 332 650 329 Z M 647 339 L 647 340 L 646 339 Z M 756 360 C 745 360 740 354 730 351 C 726 350 722 350 718 350 C 726 336 739 344 748 352 C 751 355 753 356 756 360 Z M 716 350 L 717 351 C 714 357 711 359 705 361 C 707 355 710 353 716 350 Z M 728 355 C 726 361 723 361 717 360 C 720 353 721 354 728 355 Z M 561 358 L 562 380 C 564 385 567 387 570 382 C 574 384 575 387 579 391 C 589 400 601 410 604 424 C 595 424 591 425 582 421 C 578 419 568 412 564 412 C 558 411 533 419 525 421 C 518 423 515 421 511 424 C 509 425 507 427 505 429 L 493 439 L 482 450 L 479 438 L 482 423 L 487 424 L 491 420 L 486 417 L 489 411 L 499 415 L 493 424 C 501 418 503 423 509 420 C 512 419 527 407 536 404 L 533 399 C 544 393 549 380 554 370 C 556 365 557 361 561 358 Z M 727 417 L 722 430 C 717 430 716 430 711 428 C 710 437 703 436 695 441 C 689 445 689 448 686 454 C 684 454 684 454 682 454 C 675 457 662 473 659 480 C 655 488 657 493 646 494 C 646 484 648 467 652 458 C 656 449 669 437 675 429 C 683 420 688 410 695 400 C 699 393 706 383 711 377 C 714 374 717 371 721 371 C 728 371 741 380 742 387 C 742 392 738 400 736 404 C 734 408 732 416 727 417 Z M 474 390 L 470 405 C 463 399 466 392 474 390 Z M 614 394 L 613 404 L 604 399 Z M 632 399 C 630 409 628 408 628 421 C 628 424 628 426 625 427 L 627 431 C 618 435 616 432 611 425 C 610 423 608 422 607 419 L 607 406 L 620 411 L 621 408 L 617 404 Z M 485 413 C 483 418 481 418 476 419 C 472 409 478 410 485 413 Z M 721 411 C 722 415 722 415 725 416 Z M 709 419 L 710 423 L 713 419 Z M 660 521 C 654 520 650 517 651 510 C 656 513 657 516 660 521 Z M 670 581 C 672 582 673 583 674 585 C 677 589 683 603 683 608 C 683 610 682 612 681 614 L 685 614 L 679 621 L 686 622 C 679 628 679 629 679 638 C 672 631 670 608 669 597 C 668 591 667 587 670 581 Z M 787 617 C 787 626 787 632 777 632 L 785 617 Z M 570 621 L 569 633 L 578 640 L 579 628 L 572 624 L 576 622 Z M 466 665 L 466 673 L 464 673 L 464 665 Z M 608 707 C 595 707 599 706 587 703 L 591 696 L 588 696 C 589 695 589 693 591 692 C 593 691 595 692 597 694 C 602 697 605 702 608 707 Z M 654 720 L 658 734 C 650 733 643 733 640 725 Z M 524 746 C 525 751 526 753 521 756 L 521 746 Z M 476 791 L 469 787 C 470 784 471 777 472 775 C 476 769 483 769 483 778 C 484 783 480 787 476 791 Z M 545 853 C 534 857 533 849 530 840 L 521 808 L 521 801 L 520 794 C 518 788 522 783 526 784 C 531 786 539 801 539 806 C 540 811 538 811 537 815 C 537 818 538 823 539 826 Z M 468 829 C 467 823 465 820 469 815 C 470 814 472 813 473 812 C 477 811 477 815 477 818 C 476 823 472 826 468 829 Z M 458 827 L 461 839 C 462 838 464 837 465 837 C 474 835 470 848 469 852 C 465 852 458 853 455 850 C 451 847 451 834 454 830 C 455 828 456 828 458 827 Z M 702 834 L 704 831 C 707 834 707 835 708 839 L 697 838 L 687 839 L 675 839 C 675 838 675 836 675 835 C 677 828 685 834 690 834 C 695 833 699 826 702 834 Z M 715 840 L 719 854 C 713 857 710 860 703 856 C 701 860 698 859 695 857 L 694 864 C 682 863 676 856 666 854 L 667 864 C 660 864 659 865 653 868 C 656 848 677 847 693 845 C 700 843 700 842 703 841 C 710 840 708 845 715 840 Z M 459 858 L 461 869 C 457 866 456 862 459 858 Z M 534 885 L 538 885 C 535 888 533 887 529 887 L 529 892 C 536 891 537 894 544 892 L 555 887 C 563 883 568 882 577 880 C 583 879 588 877 593 881 L 600 875 L 601 879 C 603 876 604 874 606 872 C 613 867 627 866 636 865 C 646 864 641 867 651 863 L 651 867 C 651 875 659 867 667 866 C 666 871 664 877 658 878 C 652 879 649 872 646 882 L 637 875 L 641 873 L 635 873 C 636 875 640 880 639 883 C 638 886 630 885 627 884 C 622 881 625 875 628 871 C 617 877 625 886 626 894 C 623 893 619 891 616 890 C 609 890 610 895 602 888 L 605 893 C 605 894 606 895 606 896 C 606 898 606 899 605 900 C 600 904 596 898 593 897 C 591 897 590 897 589 897 C 578 901 578 910 566 906 C 565 907 565 908 564 909 C 562 910 554 911 552 909 C 550 907 550 904 547 901 C 542 894 535 896 531 903 L 535 902 C 536 905 537 907 539 909 C 542 911 559 916 562 917 C 568 917 571 910 577 918 L 578 914 L 595 915 L 593 920 C 606 912 616 932 624 938 C 628 941 633 941 638 941 C 640 941 647 942 649 941 C 652 940 657 931 660 928 C 663 923 677 908 678 903 C 679 900 679 894 679 891 L 671 891 C 679 874 705 859 723 859 C 730 859 747 865 754 868 C 763 872 773 878 778 887 C 782 895 779 908 768 907 C 763 906 754 901 748 899 L 747 902 C 739 891 743 891 744 880 L 759 881 C 754 878 749 876 743 875 C 730 871 721 869 708 874 C 696 878 694 882 686 886 C 689 890 690 892 695 894 C 695 892 695 890 696 888 C 698 878 707 880 715 880 L 711 887 L 709 884 L 708 897 L 692 898 L 691 908 L 677 920 L 667 944 C 673 946 673 947 673 953 C 678 946 674 947 670 940 C 673 940 676 941 679 940 C 686 936 684 929 694 932 L 681 966 C 683 966 684 967 686 966 C 691 965 699 955 708 951 C 714 949 725 953 731 955 C 728 968 710 965 700 965 C 698 965 696 965 694 966 C 691 968 691 973 690 976 C 681 975 679 981 675 981 C 671 981 671 977 672 974 L 675 970 L 670 971 L 673 965 L 672 955 L 666 960 L 667 945 C 666 947 665 949 664 950 C 658 955 646 950 640 949 C 638 954 634 950 630 950 C 626 950 623 954 618 950 L 605 932 C 603 930 600 927 597 927 C 594 927 591 930 590 933 C 585 940 585 945 578 951 C 571 943 566 944 565 955 L 560 950 L 557 959 C 554 958 545 952 543 953 C 541 954 541 955 541 955 L 531 946 C 533 950 533 950 533 954 L 515 951 L 500 957 C 504 950 522 946 530 946 L 519 940 L 528 922 C 522 920 520 918 516 924 L 512 920 C 493 928 467 941 447 943 C 442 943 428 940 423 938 C 420 937 417 935 417 931 C 419 921 434 928 440 929 C 464 934 498 914 521 913 L 521 911 C 513 911 501 910 494 905 C 488 901 488 897 480 893 L 480 902 C 477 903 472 906 469 906 C 462 906 461 899 449 903 L 449 911 L 448 906 L 436 903 L 436 901 L 446 896 L 464 901 C 460 894 456 889 447 891 C 444 891 442 892 440 893 C 436 896 431 903 438 905 C 434 913 432 913 425 909 L 421 917 C 415 914 414 918 407 921 L 410 914 L 406 916 C 405 913 405 911 406 908 C 408 901 424 887 430 883 C 434 879 442 874 446 880 C 453 879 457 879 459 871 L 464 881 L 480 887 L 486 889 L 488 886 L 500 890 L 512 888 C 511 878 519 872 526 866 C 528 864 532 859 535 859 C 537 859 539 861 540 862 C 543 865 551 873 549 877 C 545 885 540 879 534 885 Z M 436 874 C 433 880 429 881 423 881 C 427 877 430 875 436 874 Z M 793 915 C 786 910 792 908 791 902 C 791 899 789 895 791 893 C 793 892 799 891 800 896 C 801 899 799 904 798 907 C 796 910 795 912 793 915 Z M 710 902 C 714 906 716 909 718 915 L 715 918 C 713 916 710 915 711 912 L 708 912 C 708 908 707 906 710 902 Z M 532 909 L 532 913 L 537 912 Z M 765 942 C 767 951 762 949 762 954 C 762 957 765 961 766 963 C 761 961 760 960 754 961 C 757 964 759 964 763 965 C 755 974 751 978 750 990 C 749 993 749 996 750 999 C 752 1002 754 1003 757 1005 L 755 1007 L 755 1008 L 766 1001 L 767 979 C 760 975 771 969 773 963 C 775 957 770 957 766 958 L 766 951 C 772 950 772 949 772 943 Z M 483 953 C 485 950 487 947 490 946 C 495 945 499 950 498 952 C 496 955 486 954 483 953 Z M 448 957 C 448 958 448 960 447 961 C 445 964 436 962 433 961 L 433 967 C 428 964 429 957 430 952 C 439 954 438 958 448 957 Z M 611 967 C 602 967 596 963 588 959 C 584 958 580 957 578 954 C 590 954 593 953 603 960 C 606 962 608 964 611 967 Z M 449 964 C 450 961 451 959 454 958 C 456 956 459 955 462 955 C 466 956 466 960 461 962 C 460 962 457 963 456 963 C 453 964 452 964 449 964 Z M 767 963 L 767 964 L 766 963 Z M 449 964 L 449 965 L 448 964 Z M 483 969 C 486 973 485 975 485 979 C 481 976 481 973 483 969 Z M 669 973 C 659 978 656 975 651 977 C 646 979 648 984 644 987 C 639 990 624 985 618 984 C 621 981 624 980 628 980 C 631 981 634 983 637 982 C 645 980 658 961 669 973 Z M 420 979 L 425 976 Z M 430 996 L 431 979 C 441 983 440 993 430 996 Z M 445 980 L 451 984 C 449 988 447 991 443 993 C 443 988 442 984 445 980 Z M 740 1003 C 741 1013 741 1010 740 1020 C 737 1016 737 1007 740 1003 Z M 617 1036 C 617 1046 618 1057 608 1063 C 608 1053 611 1046 614 1036 Z M 584 1047 C 586 1053 586 1060 582 1065 C 580 1059 580 1052 584 1047 Z M 611 1066 C 610 1071 609 1076 605 1079 C 605 1074 606 1069 611 1066 Z M 611 1096 L 611 1099 L 618 1099 "/>
</g>
</svg>
